simulation/qsim/test.msim.vcd
$comment
	File created using the following command:
		vcd file test.msim.vcd -direction
$end
$date
	Mon Dec 18 14:53:15 2023
$end
$version
	ModelSim Version 10.5b
$end
$timescale
	1ps
$end

$scope module test_vlg_vec_tst $end
$var reg 1 ! clk $end
$var reg 1 " d $end
$var wire 1 # q $end

$scope module i1 $end
$var wire 1 $ gnd $end
$var wire 1 % vcc $end
$var wire 1 & unknown $end
$var tri1 1 ' devclrn $end
$var tri1 1 ( devpor $end
$var tri1 1 ) devoe $end
$var wire 1 * ~QUARTUS_CREATED_GND~I_combout $end
$var wire 1 + clk~input_o $end
$var wire 1 , clk~inputCLKENA0_outclk $end
$var wire 1 - d~input_o $end
$var wire 1 . temp2~q $end
$var wire 1 / temp1~q $end
$var wire 1 0 q~0_combout $end
$upscope $end
$upscope $end
$enddefinitions $end
#0
$dumpvars
0!
1"
0#
0$
1%
x&
1'
1(
1)
0*
0+
0,
1-
0.
0/
00
$end
#10000
1!
1+
1,
1/
10
1#
#20000
0!
0+
0,
00
0#
1.
10
1#
#30000
1!
1+
1,
#40000
0"
0!
0-
0+
0,
0.
00
0#
#50000
1"
1!
1-
1+
1,
10
1#
#60000
0"
0!
0-
0+
0,
00
0#
#70000
1"
1!
1-
1+
1,
10
1#
#80000
0"
0!
0-
0+
0,
00
0#
#90000
1"
1!
1-
1+
1,
10
1#
#100000
0!
0+
0,
00
0#
1.
10
1#
#110000
1!
1+
1,
#120000
0!
0+
0,
#130000
0"
1!
0-
1+
1,
0/
00
0#
#140000
1"
0!
1-
0+
0,
10
1#
#150000
1!
1+
1,
00
0#
1/
10
1#
#160000
0"
0!
0-
0+
0,
0.
00
0#
#170000
1!
1+
1,
10
1#
0/
00
0#
#180000
0!
0+
0,
#190000
1!
1+
1,
#200000
1"
0!
1-
0+
0,
1.
10
1#
#210000
0"
1!
0-
1+
1,
00
0#
#220000
0!
0+
0,
10
1#
0.
00
0#
#230000
1!
1+
1,
#240000
1"
0!
1-
0+
0,
1.
10
1#
#250000
0"
1!
0-
1+
1,
00
0#
#260000
0!
0+
0,
10
1#
0.
00
0#
#270000
1!
1+
1,
#280000
1"
0!
1-
0+
0,
1.
10
1#
#290000
0"
1!
0-
1+
1,
00
0#
#300000
0!
0+
0,
10
1#
0.
00
0#
#310000
1!
1+
1,
#320000
0!
0+
0,
#330000
1"
1!
1-
1+
1,
1/
10
1#
#340000
0!
0+
0,
00
0#
1.
10
1#
#350000
0"
1!
0-
1+
1,
0/
00
0#
#360000
1"
0!
1-
0+
0,
10
1#
#370000
1!
1+
1,
00
0#
1/
10
1#
#380000
0"
0!
0-
0+
0,
0.
00
0#
#390000
1"
1!
1-
1+
1,
10
1#
#400000
0!
0+
0,
00
0#
1.
10
1#
#410000
0"
1!
0-
1+
1,
0/
00
0#
#420000
1"
0!
1-
0+
0,
10
1#
#430000
1!
1+
1,
00
0#
1/
10
1#
#440000
0!
0+
0,
#450000
1!
1+
1,
#460000
0!
0+
0,
#470000
0"
1!
0-
1+
1,
0/
00
0#
#480000
1"
0!
1-
0+
0,
10
1#
#490000
0"
1!
0-
1+
1,
00
0#
#500000
1"
0!
1-
0+
0,
10
1#
#510000
0"
1!
0-
1+
1,
00
0#
#520000
1"
0!
1-
0+
0,
10
1#
#530000
0"
1!
0-
1+
1,
00
0#
#540000
0!
0+
0,
10
1#
0.
00
0#
#550000
1"
1!
1-
1+
1,
1/
10
1#
#560000
0!
0+
0,
00
0#
1.
10
1#
#570000
0"
1!
0-
1+
1,
0/
00
0#
#580000
0!
0+
0,
10
1#
0.
00
0#
#590000
1"
1!
1-
1+
1,
1/
10
1#
#600000
0"
0!
0-
0+
0,
00
0#
#610000
1"
1!
1-
1+
1,
10
1#
#620000
0!
0+
0,
00
0#
1.
10
1#
#630000
0"
1!
0-
1+
1,
0/
00
0#
#640000
0!
0+
0,
10
1#
0.
00
0#
#650000
1!
1+
1,
#660000
0!
0+
0,
#670000
1"
1!
1-
1+
1,
1/
10
1#
#680000
0"
0!
0-
0+
0,
00
0#
#690000
1"
1!
1-
1+
1,
10
1#
#700000
0!
0+
0,
00
0#
1.
10
1#
#710000
0"
1!
0-
1+
1,
0/
00
0#
#720000
1"
0!
1-
0+
0,
10
1#
#730000
1!
1+
1,
00
0#
1/
10
1#
#740000
0"
0!
0-
0+
0,
0.
00
0#
#750000
1!
1+
1,
10
1#
0/
00
0#
#760000
1"
0!
1-
0+
0,
1.
10
1#
#770000
0"
1!
0-
1+
1,
00
0#
#780000
1"
0!
1-
0+
0,
10
1#
#790000
1!
1+
1,
00
0#
1/
10
1#
#800000
0"
0!
0-
0+
0,
0.
00
0#
#810000
1"
1!
1-
1+
1,
10
1#
#820000
0"
0!
0-
0+
0,
00
0#
#830000
1"
1!
1-
1+
1,
10
1#
#840000
0"
0!
0-
0+
0,
00
0#
#850000
1"
1!
1-
1+
1,
10
1#
#860000
0"
0!
0-
0+
0,
00
0#
#870000
1!
1+
1,
10
1#
0/
00
0#
#880000
0!
0+
0,
#890000
1!
1+
1,
#900000
0!
0+
0,
#910000
1!
1+
1,
#920000
1"
0!
1-
0+
0,
1.
10
1#
#930000
1!
1+
1,
00
0#
1/
10
1#
#940000
0"
0!
0-
0+
0,
0.
00
0#
#950000
1"
1!
1-
1+
1,
10
1#
#960000
0!
0+
0,
00
0#
1.
10
1#
#970000
1!
1+
1,
#980000
0"
0!
0-
0+
0,
0.
00
0#
#990000
1"
1!
1-
1+
1,
10
1#
